{
  "$schema": "http://json-schema.org/draft-07/schema",
  "$id": "https://gitlab.com/commonground/don/don-content/-/raw/main/schema/don-repositories.json",
  "title": "Repositories definition",
  "description": "Describes a collection of repositories of an organization",
  "type": "object",
  "properties": {
    "organization": {
      "$ref": "#/definitions/organization"
    },
    "repositories": {
      "$ref": "#/definitions/repositories"
    },
    "ignored_repositories": {
      "description": "A list of repositories to be ignored when auto updating",
      "$ref": "#/definitions/repositories"
    }
  },
  "required": ["organization", "repositories"],
  "additionalProperties": false,
  "definitions": {
    "organization": {
      "description": "The owning organization of the repositories",
      "type": "object",
      "properties": {
        "name": {
          "description": "Name of the organization",
          "type": "string",
          "minLength": 1
        },
        "ooid": {
          "description": "The ID of the organization as seen on organisaties.overheid.nl",
          "type": "integer",
          "minimum": 0
        }
      },
      "required": ["name", "ooid"],
      "additionalProperties": false
    },
    "repositories": {
      "type": "array",
      "description": "A list of repositories",
      "items": {
        "oneOf": [
          {
            "type": "object",
            "properties": {
              "github": {
                "description": "The full name of a GitHub repository",
                "type": "string",
                "pattern": "\\S/\\S"
              },
              "apis": {
                "$ref": "#/definitions/apis"
              }
            },
            "additionalProperties": false
          },
          {
            "type": "object",
            "properties": {
              "gitlab": {
                "description": "The full name of a GitLab repository",
                "type": "string",
                "pattern": "\\S/\\S"
              },
              "apis": {
                "$ref": "#/definitions/apis"
              }
            },
            "additionalProperties": false
          }
        ]
      },
      "uniqueItems": true,
      "minItems": 1
    },
    "apis": {
      "type": "array",
      "description": "A list of API's that are being used by this repository",
      "items": {
        "type": "string",
        "description": "The ID (filename) of the API",
        "pattern": "^[a-z0-9-\\)\\(]+$"
      },
      "uniqueItems": true,
      "minItems": 1
    }
  }
}
